Name,Mean,MeanLB,MeanUB,Stddev,StddevLB,StddevUB
array: 500/sequential,1.5079514220208476,1.4974042821250464,1.5234009395624497,1.651824430797177e-2,3.844636125023726e-3,2.1492037360499417e-2
array: 500/parallel with strategy,1.6153985402083322,1.546594707166662,1.729861720125001,0.11078501989251538,2.8353535657707943e-2,0.14634746330323264
array unboxed: 500/sequential,0.7476482798125138,0.729204006750005,0.7713783760000487,2.6067524302154515e-2,7.298544874989432e-3,3.416759037405041e-2
array unboxed: 500/parallel with strategy,0.8502565806666667,0.8211193598749844,0.878044717750015,3.719201897923587e-2,1.4307533916678494e-2,5.076861195359315e-2
vector: 500/sequential,0.5619464099791808,0.5587019772499957,0.5638484678541952,3.1926776947700094e-3,1.2084745094431584e-3,4.308556443078479e-3
vector: 500/parallel with strategy,0.10756754134662161,0.10443503510737552,0.11587048012347623,7.508089191085462e-3,2.0668616243670083e-3,1.2212347606990028e-2
vector unboxed: 500/sequential,0.23333617564999384,0.23291249505554232,0.23378930527775943,5.993844848086675e-4,3.6415268506133526e-4,8.183832194660404e-4
vector unboxed: 500/parallel with strategy,3.1187310278993e-2,3.0398099095176694e-2,3.231170197355364e-2,1.8365287812232498e-3,9.965902974737849e-4,2.9383606714000515e-3
list of lists : 500/sequential,1.232881168958362,1.1827052468750736,1.2710546922500043,4.911020419475995e-2,2.7890985416670788e-2,5.992408856967073e-2
list of lists : 500/parallel_par,1.1992725481457995,1.1393687163333652,1.245691192625003,5.4883063659238084e-2,4.083684831744434e-2,6.438501179027012e-2
list of lists : 500/parallel_strategy,0.1626800091534006,0.15075783954115538,0.1901987946462461,2.48017220590673e-2,8.246598944457114e-3,3.750013325483613e-2
list of lists : 500/parallel_par_chunks,1.301418330729149,0.764009133916602,1.5827649771041763,0.5284975972193116,1.07755234441268e-2,0.649742248080882
