Name,Mean,MeanLB,MeanUB,Stddev,StddevLB,StddevUB
matmult sequential/ dimension: 2000,15.23444879370829,15.223149230249987,15.242523830249922,1.1840471889029746e-2,6.188088249984958e-3,1.6620306425652334e-2
matmult par/ threads: 2/dimension: 2000,11.080565115145864,10.898859136375052,11.186376575833341,0.17869333224542375,8.57633452102362e-2,0.24436110124504873
matmult par/ threads: 3/dimension: 2000,6.557906909937354,6.509618337312389,6.58358493074987,4.5803000723350494e-2,1.3381350499912514e-2,5.9300848913451755e-2
matmult par/ threads: 4/dimension: 2000,4.513428348937471,4.484647032374937,4.5368487031250115,2.8559926454635388e-2,1.6362449875032326e-2,3.519326149886849e-2
matmult par/ threads: 5/dimension: 2000,3.5841577393541684,3.5163743997499637,3.618363982770859,6.399925365485074e-2,1.4529532884995922e-3,7.899593537836859e-2
matmult par/ threads: 6/dimension: 2000,2.980052423104155,2.9596656919999873,2.9941291734375,2.0277016864680194e-2,8.22224399996685e-3,2.6079592788283458e-2
matmult par/ threads: 7/dimension: 2000,2.643072989916637,2.6027914723749745,2.677845179083344,4.117095569033569e-2,3.279815681614423e-2,4.750477428669899e-2
matmult par/ threads: 8/dimension: 2000,2.534297878124979,2.5022950702499998,2.5696899307499357,4.383743632049227e-2,2.2364370701716672e-2,5.523780687138571e-2
matmult par/ threads: 9/dimension: 2000,2.373027413312504,2.3249093159999275,2.437101703812658,6.1505907593291116e-2,2.9643868124992423e-2,7.689419526166319e-2
matmult par/ threads: 10/dimension: 2000,2.2299962258542885,2.189633939666957,2.263764825562504,4.338139150533796e-2,3.520853861770493e-2,5.03213725710608e-2
matmult par/ threads: 11/dimension: 2000,2.0842453013542106,2.053192461624974,2.1182633085001044,3.826829112075429e-2,7.490487255696461e-3,5.009156127967121e-2
matmult par/ threads: 12/dimension: 2000,2.001703757458273,1.9713763824998978,2.0200441386249395,3.0624582945855957e-2,1.270677474991544e-2,4.2355296014460926e-2
