Benchmark,Czas wykonania [ms],Mean,MeanLB,MeanUB,Stddev,StddevLB,StddevUB
lista : sekwencyjnie,137.382447308629,0.137382447308629,0.132507552037507,0.141762449762476,0.007842620386081,0.005873446204854,0.00967588950325
lista : par/pseq,45.2337892741458,0.045233789274146,0.03620739365115,0.04911394062195,0.010246675091253,0.004611253911084,0.01622386870533
lista: strategia,16.4027715646222,0.016402771564622,0.01614864356947,0.017393776319379,0.001173147754269,7.64306894400183E-05,0.00236367798563
Array : sekwencyjnie,238.40706746998,0.23840706746998,0.23253765399993,0.24060164152,0.004520791999965,0.000674986877638,0.006010088556557
Array : strategia,39.5894675929233,0.039589467592923,0.039473361409614,0.039811561320542,0.000350148072222,0.000186954269493,0.000536047069832
Array Unboxed: sekwencyjnie,126.612152401635,0.126612152401635,0.125657889713546,0.127353634172613,0.001264315665608,0.000766144176995,0.001916643682505
Array Unboxed: strategia,36.5350981088301,0.03653509810883,0.035855195542071,0.037730628106165,0.002066314734768,0.000964132518594,0.003279143942996
Vector : sekwencyjnie,112.594843778121,0.112594843778121,0.112396111137498,0.112976951624986,0.000444760212582,0.000118223018446,0.000671925835459
Vector : strategia,19.2140322297935,0.019214032229794,0.019007911021309,0.019922105585956,0.000833866331108,0.000141918408924,0.001649660431741
Vector Unboxed : sekwencyjnie,92.3954235928504,0.092395423592851,0.092380611033332,0.092423116753951,3.49968082074055E-05,1.88069314693181E-05,5.37694986669217E-05
Vector Unboxed : strategia,10.4483271356376,0.010448327135638,0.010390710201445,0.010590006843698,0.000233622079587,0.000105896319337,0.000417168980439
