Benchmark,Czas wykonania [ms],Mean,MeanLB,MeanUB,Stddev,StddevLB,StddevUB
lista : sekwencyjnie,1.25604864713429,0.001256048647134,0.001252305254478,0.001265181360932,1.9707288551802E-05,1.11060128499932E-05,3.71797539823569E-05
lista : par/pseq,1.33572652637801,0.001335726526378,0.001320097993967,0.001358000081459,7.39701049964865E-05,6.06429035240671E-05,9.57403304903246E-05
lista: strategia,1.2676910665826,0.001267691066583,0.001248825503088,0.001300236753222,9.00017081023911E-05,6.18746091954191E-05,0.000119505740074
Array : sekwencyjnie,2.15137128992309,0.002151371289923,0.002111153450415,0.002201632638437,0.000149961731402,0.000117121271972,0.000186684863556
Array : strategia,1.95139302685114,0.001951393026851,0.001920586696544,0.002005662802323,0.000140720796471,8.30954022444758E-05,0.000228665653002
Array Unboxed: sekwencyjnie,1.17093262942434,0.001170932629424,0.001158250118303,0.001205952257226,6.53761866144885E-05,1.4544382180545E-05,0.000117423154623
Array Unboxed: strategia,2.57376664247941,0.002573766642479,0.002420142981512,0.002710042224523,0.000470272689036,0.000405750666461,0.000566395309592
Vector : sekwencyjnie,1.05881688210238,0.001058816882102,0.001055974514494,0.001063920936663,1.29544370224309E-05,2.57629665881919E-06,2.06324891279309E-05
Vector : strategia,1.09853667418682,0.001098536674187,0.001092362211609,0.001108879027191,2.6557122242803E-05,1.70763445630265E-05,4.25790455620745E-05
Vector Unboxed : sekwencyjnie,0.912927856434477,0.000912927856434,0.000911750587896,0.000916980276333,6.68170029843198E-06,1.56817173923223E-06,1.39290462877775E-05
Vector Unboxed : strategia,0.951761012422037,0.000951761012422,0.000942675876797,0.000969734193242,4.50759864272885E-05,3.15136677040041E-05,7.04956542757102E-05
