Name,speedup,Mean,MeanLB,MeanUB,Stddev,StddevLB,StddevUB
1,1,15.2344487937083,15.22314923025,15.2425238302499,0.01184047188903,0.006188088249985,0.016620306425652
2,1.37488012889203,11.0805651151459,10.8988591363751,11.1863765758333,0.178693332245424,0.085763345210236,0.244361101245049
3,2.32306572858227,6.55790690993735,6.50961833731239,6.58358493074987,0.045803000723351,0.013381350499913,0.059300848913452
4,3.37536072712769,4.51342834893747,4.48464703237494,4.53684870312501,0.028559926454635,0.016362449875032,0.035193261498869
5,4.25049618392448,3.58415773935417,3.51637439974996,3.61836398277086,0.063999253654851,0.0014529532885,0.078995935378369
6,5.11214120785145,2.98005242310415,2.95966569199999,2.9941291734375,0.02027701686468,0.008222243999967,0.026079592788284
7,5.76391528036794,2.64307298991664,2.60279147237497,2.67784517908334,0.041170955690336,0.032798156816144,0.047504774286699
8,6.0113094538751,2.53429787812498,2.50229507025,2.56968993074994,0.043837436320492,0.022364370701717,0.055237806871386
9,6.41983683300253,2.3730274133125,2.32490931599993,2.43710170381266,0.061505907593291,0.029643868124993,0.076894195261663
10,6.83160294940505,2.22999622585429,2.18963393966696,2.2637648255625,0.043381391505338,0.035208538617705,0.050321372571061
11,7.30933579833906,2.08424530135421,2.05319246162497,2.1182633085001,0.038268291120754,0.007490487255696,0.050091561279671
12,7.61074096851012,2.00170375745827,1.9713763824999,2.02004413862494,0.030624582945856,0.012706774749916,0.042355296014461
