astroid==2.2.5
cycler==0.10.0
isort==4.3.20
kiwisolver==1.1.0
lazy-object-proxy==1.4.1
matplotlib==3.1.0
mccabe==0.6.1
numpy==1.16.4
pkg-resources==0.0.0
pylint==2.3.1
pyparsing==2.4.0
python-dateutil==2.8.0
six==1.12.0
typed-ast==1.3.5
wrapt==1.11.1
