Name,Mean,MeanLB,MeanUB,Stddev,StddevLB,StddevUB
list of lists : 500/sequential,1.2560486471342902e-3,1.2523052544780938e-3,1.2651813609316168e-3,1.9707288551802006e-5,1.11060128499932e-5,3.717975398235692e-5
list of lists : 500/parallel_par,1.3357265263780108e-3,1.3200979939672394e-3,1.3580000814590303e-3,7.397010499648649e-5,6.064290352406713e-5,9.574033049032456e-5
list of lists : 500/parallel_strategy,1.2676910665825967e-3,1.248825503087785e-3,1.3002367532221166e-3,9.00017081023911e-5,6.187460919541912e-5,1.1950574007445392e-4
array boxed: 500/sequential,2.151371289923088e-3,2.1111534504148553e-3,2.201632638436829e-3,1.4996173140248572e-4,1.1712127197184715e-4,1.8668486355550586e-4
array boxed: 500/parallel,1.9513930268511414e-3,1.9205866965435958e-3,2.0056628023228822e-3,1.4072079647117717e-4,8.309540224447581e-5,2.2866565300152603e-4
array unboxed: 500/sequential,1.1709326294243414e-3,1.15825011830256e-3,1.2059522572264172e-3,6.537618661448849e-5,1.454438218054495e-5,1.1742315462312996e-4
array unboxed: 500/parallel,2.573766642479406e-3,2.4201429815117093e-3,2.710042224522983e-3,4.702726890357759e-4,4.057506664613516e-4,5.663953095923825e-4
vector boxed : 500/sequential,1.058816882102377e-3,1.0559745144936147e-3,1.0639209366632351e-3,1.2954437022430874e-5,2.5762966588191924e-6,2.063248912793092e-5
vector boxed : 500/parallel,1.0985366741868227e-3,1.0923622116086828e-3,1.1088790271914797e-3,2.655712224280302e-5,1.7076344563026495e-5,4.257904556207449e-5
vector unboxed : 500/sequential,9.129278564344768e-4,9.117505878956472e-4,9.169802763331035e-4,6.681700298431983e-6,1.56817173923223e-6,1.392904628777748e-5
vector unboxed : 500/parallel,9.517610124220369e-4,9.426758767973153e-4,9.697341932422305e-4,4.5075986427288496e-5,3.151366770400408e-5,7.049565427571018e-5
