Name,Haskell/C,Czas [ms],Przyspieszenie [-],,Mean,MeanLB,MeanUB,Stddev,StddevLB,StddevUB,Wątki,Czas wykonania [ms]
1,4.3723742957698,84.4598333333333,1,,0.369290004291668,0.369231708125,0.369330630666658,5.51992851425292E-05,8.93353326183462E-07,6.77612917006367E-05,1,369.290004291668
2,4.3531329756288,50.515,1.67936563321766,,0.219898512263889,0.219618437180584,0.220128492666674,0.000380873894498,0.000270521289714,0.000495327738164,2,219.898512263889
3,4.49347972446253,37.6179666666667,2.1846881293471,,0.169035570492174,0.16877822750715,0.169257103446248,0.000364429033669,0.000291248598171,0.000428184866279,3,169.035570492174
4,4.45499648570416,32.7533,2.5308425282328,,0.145915836395214,0.144436913442832,0.149211888299965,0.003081836886546,0.001398044306427,0.004406241793158,4,145.915836395214
5,4.52739212866801,29.3891,2.77544838095738,,0.133055980008637,0.132216913335713,0.134932612983334,0.001822004957221,0.000946524372414,0.002669963953286,5,133.055980008637
6,4.22051198280355,29.3895,2.97721513025401,,0.124038736918605,0.123356329648815,0.12485268079554,0.001199747010843,0.0008925775633,0.001660624724074,6,124.038736918605
7,4.21113888908638,28.3711333333333,3.09094517943356,,0.119474782907455,0.119226892699108,0.119875190660736,0.000475790509413,0.000301180579952,0.000630628762407,7,119.474782907455
8,4.19454037361718,27.151,3.24262960825288,,0.11388596568408,0.113365269765608,0.114086816245816,0.000514237956424,0.000249752405107,0.0007479447236,8,113.88596568408
9,4.14699291795593,26.9234333333333,3.30753019532736,,0.111651287360392,0.110881639404177,0.112324768760365,0.00095042151401,0.000614989202135,0.001324443403002,9,111.651287360392
10,4.05771451876079,26.5332666666667,3.43000964985742,,0.107664421383485,0.107080606826101,0.10828129446666,0.001052188617722,0.000814434904682,0.001413924605718,10,107.664421383485
11,3.93426797449585,27.0098,3.47521954880842,,0.106263791137538,0.10592652960847,0.106633479148112,0.000619494866748,0.000395547491968,0.000974150167161,11,106.263791137538
12,3.87433237464091,26.8891666666667,3.54481303447337,,0.104177568943782,0.103781774136904,0.104656803402788,0.000717486532758,0.000537421373306,0.00101580426059,12,104.177568943782
